…
```{r}
flights_aug <-
  augment(flights_fit, test_data)

# The data look like:
flights_aug %>%
  select(arr_delay, .pred_class) %>%
  table()

#> # A tibble: 81,455 × 5
#>   arr_delay time_hour           flight .pred_class .pred_on_time
#>   <fct>     <dttm>               <int> <fct>               <dbl>
#> 1 on_time   2013-01-01 05:00:00   1545 on_time             0.945
#> 2 on_time   2013-01-01 05:00:00   1714 on_time             0.949
#> 3 on_time   2013-01-01 06:00:00    507 on_time             0.964
#> 4 on_time   2013-01-01 06:00:00   5708 on_time             0.961
#> 5 on_time   2013-01-01 06:00:00     71 on_time             0.962
#> # … with 81,450 more rows
…
